…
3. To create the last plot (showing the data for the countries with the worst model fits), we needed two steps: we created a data frame with one row per country and then semi-joined it to the original dataset. It’s possible to avoid this join if we use `unnest()` instead of `unnest(.drop = TRUE)`. How?

### Exercises pg. 415 (25.4.5)

1. List all the functions that you can think of that take a atomic vector and return a list.

2. Brainstorm useful summary functions that, like `quantile()`, return multiple values.

3. What’s missing in the following data frame? How does `quantile()` return that missing piece? Why isn’t that helpful here?
```{r}
mtcars %>% 
  group_by(cyl) %>% 
  summarise(q = list(quantile(mpg))) %>% 
  unnest()
#> # A tibble: 15 x 2
#>     cyl     q
#>   <dbl> <dbl>
#> 1     4  21.4
#> 2     4  22.8
#> 3     4  26  
#> 4     4  30.4
#> 5     4  33.9
#> 6     6  17.8
#> # … with 9 more rows
```
…
